<?xml version="1.0" encoding="UTF-8" standalone="no"?>

<svg
   width="128"
   height="128"
   viewBox="0 0 33.866666 33.866668"
   version="1.1"
   id="svg5"
   xmlns="http://www.w3.org/2000/svg"
   xmlnsSvg="http://www.w3.org/2000/svg">
  <defs
     id="defs2" />
  <g
     id="layer1">
    <rect
       style="fill:none;stroke:#ffffff;stroke-width:2.11667;stroke-linecap:round;stroke-linejoin:round;stroke-dasharray:none;stroke-opacity:1"
       id="rect1198"
       width="27.516665"
       height="19.049997"
       x="3.1750002"
       y="3.1750016"
       rx="4.2333336"
       ry="4.2333336" />
    <path
       style="fill:none;stroke:#ffffff;stroke-width:2.11668;stroke-linecap:round;stroke-linejoin:miter;stroke-dasharray:none;stroke-opacity:1"
       d="M 16.933333,26.45834 V 30.7033"
       id="path1252" />
    <path
       style="fill:none;stroke:#ffffff;stroke-width:2.11668;stroke-linecap:round;stroke-linejoin:miter;stroke-dasharray:none;stroke-opacity:1"
       d="M 26.469967,8.4666734 H 20.108334"
       id="path1252-1" />
    <path
       style="fill:none;stroke:#ffffff;stroke-width:2.11668;stroke-linecap:round;stroke-linejoin:miter;stroke-dasharray:none;stroke-opacity:1"
       d="m 26.469967,12.7 h -4.24496" />
    <path
       style="fill:none;stroke:#ffffff;stroke-width:2.11668;stroke-linecap:round;stroke-linejoin:miter;stroke-dasharray:none;stroke-opacity:1"
       d="M 26.469967,16.933334 H 23.283334"
       id="path1252-1-2-7" />
    <path
       id="path1306"
       style="stroke-width:2.11667;stroke-linecap:round;stroke-linejoin:round;fill:#ffffff;fill-opacity:1"
       d="M 11.6427 6.4590373 C 11.616199 6.459031 11.579949 6.4598032 11.544515 6.4605876 A 6.3499999 6.3499999 0 0 0 6.8331747 10.270174 A 6.3499999 6.3499999 0 0 0 8.2098349 17.190165 A 6.3499999 6.3499999 0 0 0 15.129826 18.566826 A 6.3499999 6.3499999 0 0 0 18.929594 13.930416 C 18.938876 13.856821 18.943556 13.796761 18.943547 13.757817 C 18.943685 13.179727 18.479902 12.71042 17.904334 12.7 L 13.758333 12.7 C 13.477648 12.7 13.208535 12.588415 13.010059 12.389942 C 12.811583 12.191466 12.7 11.922355 12.7 11.641667 L 12.7 7.5178874 L 12.698967 7.5173707 C 12.699108 6.9334307 12.22664 6.4599747 11.6427 6.4590373 z " />
  </g>
</svg>
